_atysmas_construction.bnpe,_atysmas_construction.bnp
_atysmas_desert_shapes.bnpe,_atysmas_desert_shapes.bnp
_atysmas_fauna_shapes.bnpe,_atysmas_fauna_shapes.bnp
_atysmas_fyros_ig.bnpe,_atysmas_fyros_ig.bnp
_atysmas_fyros_shapes.bnpe,_atysmas_fyros_shapes.bnp
_atysmas_interfaces.bnpe,_atysmas_interfaces.bnp
_atysmas_jungle_maps.bnpe,_atysmas_jungle_maps.bnp
_atysmas_jungle_shapes.bnpe,_atysmas_jungle_shapes.bnp
_atysmas_leveldesign.bnpe,_atysmas_leveldesign.bnp
_atysmas_matis_ig.bnpe,_atysmas_matis_ig.bnp
_atysmas_objects.bnpe,_atysmas_objects.bnp
_atysmas_sfx.bnpe,_atysmas_sfx.bnp
_atysmas_tryker_ig.bnpe,_atysmas_tryker_ig.bnp
_atysmas_zorai_ig.bnpe,_atysmas_zorai_ig.bnp
